Analyse Lösung vom Effekt Rassenkombination vs Heterosis/Rekombination
…
Aus den Ergebnissen der Modellselektion hat sich rausgestellt, dass sowohl der fixen Effekt Rassenkombination wie auch Heterosis und Rekombination im Modell für alle Schlachtmerkmale enthalten sollten. Dieses Ergebnis ist unerwartet.

Ziel

Analyse aus dem gesamten Datensatz von den Lösung aus der Modellselektion für Rassenkombination sowie Heterosis und Rekombination.

Vorgehen

Der Merkmalsblock Schlachtgewicht wurde ausgewählt, da es ist der “sauberste” erhobene Merkmal. Dann wird die Lösung vom Effekt Rassenkombination und entsprechend Heterosis und Rekombination wo die Rassenkombination am meisten Beobachtungen enthält. Mit dem wird erhofft einerseits die Lösung wie auch die Logik von Effekt kontrolliert.

Analyse

Die wichtigsten Rassenkombination nach Effektstuffen sortieren:

## # A tibble: 31 x 2
##    breedcomb      n
##        <dbl>  <int>
##  1         4 138694
##  2         1  74443
##  3        15  50063
##  4        16  34322
##  5        23  23617
##  6         9  21000
##  7        26  16147
##  8         8  11659
##  9        19  11013
## 10        10  10563
## # … with 21 more rows
…
